<?xml version="1.0" encoding="utf-8"?>
<!-- Generator: Adobe Illustrator 18.1.0, SVG Export Plug-In . SVG Version: 6.00 Build 0)  -->
<svg version="1.1" xmlns="http://www.w3.org/2000/svg" xmlns:xlink="http://www.w3.org/1999/xlink" x="0px" y="0px"
	 viewBox="-371 372.3 56.7 56.7" enable-background="new -371 372.3 56.7 56.7" xml:space="preserve">
<g id="Layer_2" display="none">
	<rect x="-371" y="372.3" display="inline" fill="#0A0001" width="56.7" height="56.7"/>
</g>
<g id="Layer_1">
	<g>
		<polygon fill="#FFFFFF" points="-353.2,404.2 -351.4,404.2 -351.4,413 -349.7,413 -349.7,404.2 -347.9,404.2 -347.9,402.7 
			-353.2,402.7 		"/>
		<path fill="#FFFFFF" d="M-342.6,396.8c0.2,0,0.4-0.1,0.6-0.2c0.1-0.1,0.2-0.3,0.2-0.5v-4.6c0-0.2-0.1-0.3-0.2-0.4
			c-0.1-0.1-0.3-0.2-0.6-0.2c-0.2,0-0.4,0.1-0.5,0.2c-0.1,0.1-0.2,0.3-0.2,0.4v4.6c0,0.2,0.1,0.4,0.2,0.5
			C-343,396.7-342.8,396.8-342.6,396.8z"/>
		<path fill="#FFFFFF" d="M-338.8,405.3c-0.2,0-0.5,0.1-0.7,0.2c-0.2,0.1-0.4,0.3-0.7,0.5v-3.3h-1.5V413h1.5v-0.6
			c0.2,0.2,0.4,0.4,0.7,0.5c0.2,0.1,0.5,0.2,0.8,0.2c0.5,0,0.8-0.1,1-0.4c0.2-0.3,0.4-0.7,0.4-1.2v-4.2c0-0.6-0.1-1.1-0.4-1.4
			C-337.9,405.4-338.3,405.3-338.8,405.3z M-338.9,411.2c0,0.2,0,0.4-0.1,0.5c-0.1,0.1-0.2,0.2-0.4,0.2c-0.1,0-0.2,0-0.4-0.1
			c-0.1-0.1-0.2-0.1-0.4-0.3v-4.8c0.1-0.1,0.2-0.2,0.3-0.2c0.1-0.1,0.2-0.1,0.3-0.1c0.2,0,0.4,0.1,0.5,0.2c0.1,0.1,0.2,0.3,0.2,0.6
			V411.2z"/>
		<path fill="#FFFFFF" d="M-344.4,411.2c-0.1,0.2-0.3,0.3-0.5,0.4c-0.2,0.1-0.3,0.2-0.4,0.2c-0.1,0-0.2,0-0.3-0.1
			c-0.1-0.1-0.1-0.2-0.1-0.4v-5.9h-1.5v6.4c0,0.5,0.1,0.8,0.3,1c0.2,0.2,0.4,0.3,0.8,0.3c0.3,0,0.6-0.1,0.9-0.2
			c0.3-0.2,0.6-0.4,0.9-0.7v0.8h1.5v-7.6h-1.5L-344.4,411.2L-344.4,411.2z"/>
		<path fill="#FFFFFF" d="M-342.7,377.5c-13.6,0-24.6,11-24.6,24.6c0,13.6,11,24.6,24.6,24.6c13.6,0,24.6-11,24.6-24.6
			C-318,388.5-329.1,377.5-342.7,377.5z M-338.7,389.6h1.7v6.5c0,0.2,0,0.3,0.1,0.4c0.1,0.1,0.2,0.1,0.4,0.1c0.1,0,0.3-0.1,0.5-0.2
			c0.2-0.1,0.4-0.3,0.5-0.5v-6.4h1.7v8.4h-1.7v-0.9c-0.3,0.3-0.6,0.6-1,0.8c-0.3,0.2-0.7,0.3-1,0.3c-0.4,0-0.7-0.1-0.9-0.4
			c-0.2-0.2-0.3-0.6-0.3-1.1C-338.7,396.7-338.7,389.6-338.7,389.6z M-345.1,391.6c0-0.7,0.2-1.2,0.7-1.6c0.5-0.4,1.1-0.6,1.9-0.6
			c0.7,0,1.3,0.2,1.8,0.6c0.5,0.4,0.7,0.9,0.7,1.6v4.4c0,0.7-0.2,1.3-0.7,1.7c-0.4,0.4-1.1,0.6-1.8,0.6c-0.8,0-1.4-0.2-1.8-0.6
			c-0.5-0.4-0.7-1-0.7-1.7L-345.1,391.6L-345.1,391.6z M-349.8,386.6l1.3,4.6h0.1l1.2-4.6h2l-2.3,6.7v4.7h-1.9v-4.5l-2.3-6.9H-349.8
			z M-327.2,410.7c0,3-2.5,5.5-5.5,5.5h-19.2c-3,0-5.5-2.5-5.5-5.5v-4.4c0-3,2.5-5.5,5.5-5.5h19.2c3,0,5.5,2.5,5.5,5.5V410.7z"/>
		<path fill="#FFFFFF" d="M-334.2,405.2c-0.7,0-1.2,0.2-1.7,0.6c-0.4,0.4-0.7,1-0.7,1.6v3.4c0,0.7,0.2,1.3,0.6,1.7
			c0.4,0.4,0.9,0.6,1.6,0.6c0.8,0,1.3-0.2,1.7-0.6c0.4-0.4,0.6-1,0.6-1.8v-0.4h-1.6v0.3c0,0.5-0.1,0.7-0.2,0.9s-0.3,0.2-0.5,0.2
			c-0.2,0-0.4-0.1-0.5-0.2c-0.1-0.2-0.1-0.4-0.1-0.8v-1.4h2.9v-2c0-0.7-0.2-1.3-0.6-1.7C-332.9,405.4-333.5,405.2-334.2,405.2z
			 M-333.6,408.2h-1.4v-0.8c0-0.3,0-0.6,0.2-0.7c0.1-0.1,0.3-0.2,0.5-0.2c0.2,0,0.4,0.1,0.5,0.2c0.1,0.1,0.2,0.4,0.2,0.7
			L-333.6,408.2L-333.6,408.2z"/>
	</g>
</g>
</svg>
